%YAML 1.1
%TAG !u! tag:unity3d.com,2011:
--- !u!114 &11400000
MonoBehaviour:
  m_ObjectHideFlags: 0
  m_CorrespondingSourceObject: {fileID: 0}
  m_PrefabInstance: {fileID: 0}
  m_PrefabAsset: {fileID: 0}
  m_GameObject: {fileID: 0}
  m_Enabled: 1
  m_EditorHideFlags: 0
  m_Script: {fileID: 11500000, guid: cbd94266af8b3364ab3defa34140dcfd, type: 3}
  m_Name: Boomerang
  m_EditorClassIdentifier: 
  _SkillEnum: 2
  _SkillName: Boomerang
  _SkillDescription: "Un Boomernag que hara da\xF1o a los enemigos y te permitira
    teletransportarte a el mientras hace su recorrido."
  _SkillSprite: {fileID: 21300000, guid: 8b82275c50ef2ec469cc3f193b7d3ca7, type: 3}
  _CoolDown: 20
