%YAML 1.1
%TAG !u! tag:unity3d.com,2011:
--- !u!74 &7400000
AnimationClip:
  m_ObjectHideFlags: 0
  m_CorrespondingSourceObject: {fileID: 0}
  m_PrefabInstance: {fileID: 0}
  m_PrefabAsset: {fileID: 0}
  m_Name: Walk
  serializedVersion: 7
  m_Legacy: 0
  m_Compressed: 0
  m_UseHighQualityCurve: 1
  m_RotationCurves: []
  m_CompressedRotationCurves: []
  m_EulerCurves: []
  m_PositionCurves: []
  m_ScaleCurves: []
  m_FloatCurves: []
  m_PPtrCurves:
  - serializedVersion: 2
    curve:
    - time: 0
      value: {fileID: 21300000, guid: 51b5fdd8c7a723e4ca35e9599053640c, type: 3}
    - time: 0.083333336
      value: {fileID: 21300000, guid: 0a973d8a80ef21247b38ca3b8af30ec5, type: 3}
    - time: 0.16666667
      value: {fileID: 21300000, guid: f1ae7b8ee1219f345b7cfdf187e152d1, type: 3}
    - time: 0.25
      value: {fileID: 21300000, guid: 3dcaea46d02a2cf47a94e2ca89f2b6d8, type: 3}
    - time: 0.33333334
      value: {fileID: 21300000, guid: a1f850ae3dff06c46853f8ba10223b49, type: 3}
    - time: 0.41666666
      value: {fileID: 21300000, guid: f55d1092da88d4a4582c47dfbd1cdd47, type: 3}
    - time: 0.5
      value: {fileID: 21300000, guid: 22af962c6f477bd46ab0365475399f21, type: 3}
    - time: 0.5833333
      value: {fileID: 21300000, guid: ae28e21348be3614485e2c8b412423b8, type: 3}
    - time: 0.6666667
      value: {fileID: 21300000, guid: 9448a2cde01cf8d49bd1ba6d98e60770, type: 3}
    - time: 0.75
      value: {fileID: 21300000, guid: 7553a25184b5f9d42b8b95a42844a45d, type: 3}
    - time: 0.8333333
      value: {fileID: 21300000, guid: dda213762674d9243886ea2678d93218, type: 3}
    - time: 0.9166667
      value: {fileID: 21300000, guid: df13d8ded8d201a449458d431b30566c, type: 3}
    attribute: m_Sprite
    path: 
    classID: 212
    script: {fileID: 0}
    flags: 2
  m_SampleRate: 60
  m_WrapMode: 0
  m_Bounds:
    m_Center: {x: 0, y: 0, z: 0}
    m_Extent: {x: 0, y: 0, z: 0}
  m_ClipBindingConstant:
    genericBindings:
    - serializedVersion: 2
      path: 0
      attribute: 0
      script: {fileID: 0}
      typeID: 212
      customType: 23
      isPPtrCurve: 1
      isIntCurve: 0
      isSerializeReferenceCurve: 0
    pptrCurveMapping:
    - {fileID: 21300000, guid: 51b5fdd8c7a723e4ca35e9599053640c, type: 3}
    - {fileID: 21300000, guid: 0a973d8a80ef21247b38ca3b8af30ec5, type: 3}
    - {fileID: 21300000, guid: f1ae7b8ee1219f345b7cfdf187e152d1, type: 3}
    - {fileID: 21300000, guid: 3dcaea46d02a2cf47a94e2ca89f2b6d8, type: 3}
    - {fileID: 21300000, guid: a1f850ae3dff06c46853f8ba10223b49, type: 3}
    - {fileID: 21300000, guid: f55d1092da88d4a4582c47dfbd1cdd47, type: 3}
    - {fileID: 21300000, guid: 22af962c6f477bd46ab0365475399f21, type: 3}
    - {fileID: 21300000, guid: ae28e21348be3614485e2c8b412423b8, type: 3}
    - {fileID: 21300000, guid: 9448a2cde01cf8d49bd1ba6d98e60770, type: 3}
    - {fileID: 21300000, guid: 7553a25184b5f9d42b8b95a42844a45d, type: 3}
    - {fileID: 21300000, guid: dda213762674d9243886ea2678d93218, type: 3}
    - {fileID: 21300000, guid: df13d8ded8d201a449458d431b30566c, type: 3}
  m_AnimationClipSettings:
    serializedVersion: 2
    m_AdditiveReferencePoseClip: {fileID: 0}
    m_AdditiveReferencePoseTime: 0
    m_StartTime: 0
    m_StopTime: 0.93333334
    m_OrientationOffsetY: 0
    m_Level: 0
    m_CycleOffset: 0
    m_HasAdditiveReferencePose: 0
    m_LoopTime: 1
    m_LoopBlend: 0
    m_LoopBlendOrientation: 0
    m_LoopBlendPositionY: 0
    m_LoopBlendPositionXZ: 0
    m_KeepOriginalOrientation: 0
    m_KeepOriginalPositionY: 1
    m_KeepOriginalPositionXZ: 0
    m_HeightFromFeet: 0
    m_Mirror: 0
  m_EditorCurves: []
  m_EulerEditorCurves: []
  m_HasGenericRootTransform: 0
  m_HasMotionFloatCurves: 0
  m_Events: []
