%YAML 1.1
%TAG !u! tag:unity3d.com,2011:
--- !u!114 &11400000
MonoBehaviour:
  m_ObjectHideFlags: 0
  m_CorrespondingSourceObject: {fileID: 0}
  m_PrefabInstance: {fileID: 0}
  m_PrefabAsset: {fileID: 0}
  m_GameObject: {fileID: 0}
  m_Enabled: 1
  m_EditorHideFlags: 0
  m_Script: {fileID: 11500000, guid: e175c843ff60449458f926ada319ceba, type: 3}
  m_Name: Espada Larga
  m_EditorClassIdentifier: 
  _PerkName: Espada Larga
  _TalismanSprite: {fileID: 21300000, guid: 1d6d69ff40c2ee045b06fd3156673680, type: 3}
  _Cost: 35
  _TalismanText: Aumenta el alcance de tus ataques
  _PerkType: 0
  _Range: 2.13
  _DMG: 0
  _Health: 0
  _MoneyPercent: 0
  _Speed: 0
  _DMGTime:
    _PerkValue: 0
    _TimeToBleed: 0
    _TotalTime: 0
  _CoolDownReductionPercent: 0
