%YAML 1.1
%TAG !u! tag:unity3d.com,2011:
--- !u!114 &11400000
MonoBehaviour:
  m_ObjectHideFlags: 0
  m_CorrespondingSourceObject: {fileID: 0}
  m_PrefabInstance: {fileID: 0}
  m_PrefabAsset: {fileID: 0}
  m_GameObject: {fileID: 0}
  m_Enabled: 1
  m_EditorHideFlags: 0
  m_Script: {fileID: 11500000, guid: 589cc11faeaf08a4f9946ab41ec59ac5, type: 3}
  m_Name: CavernTrollSuicide
  m_EditorClassIdentifier: 
  _EnemyType: 7
  _MaxHealth: 1
  _Speed: 4
  _DMG: 2
  _Sprite: {fileID: 0}
  _MoneyQuantity: 0
  _CanRespawn: 1
