%YAML 1.1
%TAG !u! tag:unity3d.com,2011:
--- !u!114 &11400000
MonoBehaviour:
  m_ObjectHideFlags: 0
  m_CorrespondingSourceObject: {fileID: 0}
  m_PrefabInstance: {fileID: 0}
  m_PrefabAsset: {fileID: 0}
  m_GameObject: {fileID: 0}
  m_Enabled: 1
  m_EditorHideFlags: 0
  m_Script: {fileID: 11500000, guid: 589cc11faeaf08a4f9946ab41ec59ac5, type: 3}
  m_Name: Worm
  m_EditorClassIdentifier: 
  _MaxHealth: 2
  _Speed: 1
  _DMG: 1
  _Sprite: {fileID: 10913, guid: 0000000000000000f000000000000000, type: 0}
  _MoneyQuantity: 2
  _CanRespawn: 1
