%YAML 1.1
%TAG !u! tag:unity3d.com,2011:
--- !u!74 &7400000
AnimationClip:
  m_ObjectHideFlags: 0
  m_CorrespondingSourceObject: {fileID: 0}
  m_PrefabInstance: {fileID: 0}
  m_PrefabAsset: {fileID: 0}
  m_Name: Coins1
  serializedVersion: 7
  m_Legacy: 0
  m_Compressed: 0
  m_UseHighQualityCurve: 1
  m_RotationCurves: []
  m_CompressedRotationCurves: []
  m_EulerCurves: []
  m_PositionCurves: []
  m_ScaleCurves: []
  m_FloatCurves: []
  m_PPtrCurves:
  - serializedVersion: 2
    curve:
    - time: 0
      value: {fileID: 1293627208, guid: 0dc808eb2f06da5428a03d30d70bc2d1, type: 3}
    - time: 0.15
      value: {fileID: -1102713333, guid: 0dc808eb2f06da5428a03d30d70bc2d1, type: 3}
    - time: 0.28333333
      value: {fileID: 212815459, guid: 0dc808eb2f06da5428a03d30d70bc2d1, type: 3}
    - time: 0.43333334
      value: {fileID: 1832025182, guid: 0dc808eb2f06da5428a03d30d70bc2d1, type: 3}
    - time: 0.56666666
      value: {fileID: 1464428611, guid: 0dc808eb2f06da5428a03d30d70bc2d1, type: 3}
    - time: 0.71666664
      value: {fileID: 4929196, guid: 0dc808eb2f06da5428a03d30d70bc2d1, type: 3}
    - time: 0.85
      value: {fileID: 2085128091, guid: 0dc808eb2f06da5428a03d30d70bc2d1, type: 3}
    - time: 1
      value: {fileID: -2034143395, guid: 0dc808eb2f06da5428a03d30d70bc2d1, type: 3}
    - time: 1.15
      value: {fileID: 273169793, guid: 0dc808eb2f06da5428a03d30d70bc2d1, type: 3}
    - time: 1.2833333
      value: {fileID: 1736725412, guid: 0dc808eb2f06da5428a03d30d70bc2d1, type: 3}
    - time: 1.4333333
      value: {fileID: 1627230598, guid: 0dc808eb2f06da5428a03d30d70bc2d1, type: 3}
    - time: 1.5666667
      value: {fileID: 313595314, guid: 0dc808eb2f06da5428a03d30d70bc2d1, type: 3}
    - time: 1.7166667
      value: {fileID: -1539817779, guid: 0dc808eb2f06da5428a03d30d70bc2d1, type: 3}
    - time: 1.85
      value: {fileID: 1944852983, guid: 0dc808eb2f06da5428a03d30d70bc2d1, type: 3}
    - time: 2
      value: {fileID: -1930636391, guid: 0dc808eb2f06da5428a03d30d70bc2d1, type: 3}
    attribute: m_Sprite
    path: 
    classID: 212
    script: {fileID: 0}
    flags: 2
  m_SampleRate: 60
  m_WrapMode: 0
  m_Bounds:
    m_Center: {x: 0, y: 0, z: 0}
    m_Extent: {x: 0, y: 0, z: 0}
  m_ClipBindingConstant:
    genericBindings:
    - serializedVersion: 2
      path: 0
      attribute: 0
      script: {fileID: 0}
      typeID: 212
      customType: 23
      isPPtrCurve: 1
      isIntCurve: 0
      isSerializeReferenceCurve: 0
    pptrCurveMapping:
    - {fileID: 1293627208, guid: 0dc808eb2f06da5428a03d30d70bc2d1, type: 3}
    - {fileID: -1102713333, guid: 0dc808eb2f06da5428a03d30d70bc2d1, type: 3}
    - {fileID: 212815459, guid: 0dc808eb2f06da5428a03d30d70bc2d1, type: 3}
    - {fileID: 1832025182, guid: 0dc808eb2f06da5428a03d30d70bc2d1, type: 3}
    - {fileID: 1464428611, guid: 0dc808eb2f06da5428a03d30d70bc2d1, type: 3}
    - {fileID: 4929196, guid: 0dc808eb2f06da5428a03d30d70bc2d1, type: 3}
    - {fileID: 2085128091, guid: 0dc808eb2f06da5428a03d30d70bc2d1, type: 3}
    - {fileID: -2034143395, guid: 0dc808eb2f06da5428a03d30d70bc2d1, type: 3}
    - {fileID: 273169793, guid: 0dc808eb2f06da5428a03d30d70bc2d1, type: 3}
    - {fileID: 1736725412, guid: 0dc808eb2f06da5428a03d30d70bc2d1, type: 3}
    - {fileID: 1627230598, guid: 0dc808eb2f06da5428a03d30d70bc2d1, type: 3}
    - {fileID: 313595314, guid: 0dc808eb2f06da5428a03d30d70bc2d1, type: 3}
    - {fileID: -1539817779, guid: 0dc808eb2f06da5428a03d30d70bc2d1, type: 3}
    - {fileID: 1944852983, guid: 0dc808eb2f06da5428a03d30d70bc2d1, type: 3}
    - {fileID: -1930636391, guid: 0dc808eb2f06da5428a03d30d70bc2d1, type: 3}
  m_AnimationClipSettings:
    serializedVersion: 2
    m_AdditiveReferencePoseClip: {fileID: 0}
    m_AdditiveReferencePoseTime: 0
    m_StartTime: 0
    m_StopTime: 2.0166667
    m_OrientationOffsetY: 0
    m_Level: 0
    m_CycleOffset: 0
    m_HasAdditiveReferencePose: 0
    m_LoopTime: 1
    m_LoopBlend: 0
    m_LoopBlendOrientation: 0
    m_LoopBlendPositionY: 0
    m_LoopBlendPositionXZ: 0
    m_KeepOriginalOrientation: 0
    m_KeepOriginalPositionY: 1
    m_KeepOriginalPositionXZ: 0
    m_HeightFromFeet: 0
    m_Mirror: 0
  m_EditorCurves: []
  m_EulerEditorCurves: []
  m_HasGenericRootTransform: 0
  m_HasMotionFloatCurves: 0
  m_Events: []
