%YAML 1.1
%TAG !u! tag:unity3d.com,2011:
--- !u!74 &7400000
AnimationClip:
  m_ObjectHideFlags: 0
  m_CorrespondingSourceObject: {fileID: 0}
  m_PrefabInstance: {fileID: 0}
  m_PrefabAsset: {fileID: 0}
  m_Name: Coins10
  serializedVersion: 7
  m_Legacy: 0
  m_Compressed: 0
  m_UseHighQualityCurve: 1
  m_RotationCurves: []
  m_CompressedRotationCurves: []
  m_EulerCurves: []
  m_PositionCurves: []
  m_ScaleCurves: []
  m_FloatCurves: []
  m_PPtrCurves:
  - serializedVersion: 2
    curve:
    - time: 0
      value: {fileID: 391566024, guid: 0dc808eb2f06da5428a03d30d70bc2d1, type: 3}
    - time: 0.13333334
      value: {fileID: 436345511, guid: 0dc808eb2f06da5428a03d30d70bc2d1, type: 3}
    - time: 0.28333333
      value: {fileID: -1208308431, guid: 0dc808eb2f06da5428a03d30d70bc2d1, type: 3}
    - time: 0.41666666
      value: {fileID: -1159930078, guid: 0dc808eb2f06da5428a03d30d70bc2d1, type: 3}
    - time: 0.5833333
      value: {fileID: -2131750487, guid: 0dc808eb2f06da5428a03d30d70bc2d1, type: 3}
    - time: 0.71666664
      value: {fileID: -218261003, guid: 0dc808eb2f06da5428a03d30d70bc2d1, type: 3}
    - time: 0.8666667
      value: {fileID: -1937485965, guid: 0dc808eb2f06da5428a03d30d70bc2d1, type: 3}
    - time: 1
      value: {fileID: -306563604, guid: 0dc808eb2f06da5428a03d30d70bc2d1, type: 3}
    - time: 1.1333333
      value: {fileID: 71030103, guid: 0dc808eb2f06da5428a03d30d70bc2d1, type: 3}
    - time: 1.2833333
      value: {fileID: 275382135, guid: 0dc808eb2f06da5428a03d30d70bc2d1, type: 3}
    - time: 1.4166666
      value: {fileID: -126523846, guid: 0dc808eb2f06da5428a03d30d70bc2d1, type: 3}
    - time: 1.5833334
      value: {fileID: 588679984, guid: 0dc808eb2f06da5428a03d30d70bc2d1, type: 3}
    - time: 1.7166667
      value: {fileID: 1621192497, guid: 0dc808eb2f06da5428a03d30d70bc2d1, type: 3}
    - time: 1.8666667
      value: {fileID: 1473346169, guid: 0dc808eb2f06da5428a03d30d70bc2d1, type: 3}
    - time: 2
      value: {fileID: -1161214829, guid: 0dc808eb2f06da5428a03d30d70bc2d1, type: 3}
    attribute: m_Sprite
    path: 
    classID: 212
    script: {fileID: 0}
    flags: 2
  m_SampleRate: 60
  m_WrapMode: 0
  m_Bounds:
    m_Center: {x: 0, y: 0, z: 0}
    m_Extent: {x: 0, y: 0, z: 0}
  m_ClipBindingConstant:
    genericBindings:
    - serializedVersion: 2
      path: 0
      attribute: 0
      script: {fileID: 0}
      typeID: 212
      customType: 23
      isPPtrCurve: 1
      isIntCurve: 0
      isSerializeReferenceCurve: 0
    pptrCurveMapping:
    - {fileID: 391566024, guid: 0dc808eb2f06da5428a03d30d70bc2d1, type: 3}
    - {fileID: 436345511, guid: 0dc808eb2f06da5428a03d30d70bc2d1, type: 3}
    - {fileID: -1208308431, guid: 0dc808eb2f06da5428a03d30d70bc2d1, type: 3}
    - {fileID: -1159930078, guid: 0dc808eb2f06da5428a03d30d70bc2d1, type: 3}
    - {fileID: -2131750487, guid: 0dc808eb2f06da5428a03d30d70bc2d1, type: 3}
    - {fileID: -218261003, guid: 0dc808eb2f06da5428a03d30d70bc2d1, type: 3}
    - {fileID: -1937485965, guid: 0dc808eb2f06da5428a03d30d70bc2d1, type: 3}
    - {fileID: -306563604, guid: 0dc808eb2f06da5428a03d30d70bc2d1, type: 3}
    - {fileID: 71030103, guid: 0dc808eb2f06da5428a03d30d70bc2d1, type: 3}
    - {fileID: 275382135, guid: 0dc808eb2f06da5428a03d30d70bc2d1, type: 3}
    - {fileID: -126523846, guid: 0dc808eb2f06da5428a03d30d70bc2d1, type: 3}
    - {fileID: 588679984, guid: 0dc808eb2f06da5428a03d30d70bc2d1, type: 3}
    - {fileID: 1621192497, guid: 0dc808eb2f06da5428a03d30d70bc2d1, type: 3}
    - {fileID: 1473346169, guid: 0dc808eb2f06da5428a03d30d70bc2d1, type: 3}
    - {fileID: -1161214829, guid: 0dc808eb2f06da5428a03d30d70bc2d1, type: 3}
  m_AnimationClipSettings:
    serializedVersion: 2
    m_AdditiveReferencePoseClip: {fileID: 0}
    m_AdditiveReferencePoseTime: 0
    m_StartTime: 0
    m_StopTime: 2.0166667
    m_OrientationOffsetY: 0
    m_Level: 0
    m_CycleOffset: 0
    m_HasAdditiveReferencePose: 0
    m_LoopTime: 1
    m_LoopBlend: 0
    m_LoopBlendOrientation: 0
    m_LoopBlendPositionY: 0
    m_LoopBlendPositionXZ: 0
    m_KeepOriginalOrientation: 0
    m_KeepOriginalPositionY: 1
    m_KeepOriginalPositionXZ: 0
    m_HeightFromFeet: 0
    m_Mirror: 0
  m_EditorCurves: []
  m_EulerEditorCurves: []
  m_HasGenericRootTransform: 0
  m_HasMotionFloatCurves: 0
  m_Events: []
