%YAML 1.1
%TAG !u! tag:unity3d.com,2011:
--- !u!114 &11400000
MonoBehaviour:
  m_ObjectHideFlags: 0
  m_CorrespondingSourceObject: {fileID: 0}
  m_PrefabInstance: {fileID: 0}
  m_PrefabAsset: {fileID: 0}
  m_GameObject: {fileID: 0}
  m_Enabled: 1
  m_EditorHideFlags: 0
  m_Script: {fileID: 11500000, guid: 9d1514134bc4fbd41bb739b1b9a49231, type: 3}
  m_Name: CaveDeco
  m_EditorClassIdentifier: 
  m_DefaultSprite: {fileID: -1768504454, guid: 1dacecb0b25a1524ea87c0e634c09eca, type: 3}
  m_DefaultGameObject: {fileID: 0}
  m_DefaultColliderType: 1
  m_TilingRules:
  - m_Id: 7
    m_Sprites:
    - {fileID: -1923060909, guid: 1dacecb0b25a1524ea87c0e634c09eca, type: 3}
    m_GameObject: {fileID: 0}
    m_MinAnimationSpeed: 1
    m_MaxAnimationSpeed: 1
    m_PerlinScale: 0.5
    m_Output: 0
    m_ColliderType: 1
    m_RandomTransform: 0
    m_Neighbors: 010000000200000002000000
    m_NeighborPositions:
    - {x: 0, y: -1, z: 0}
    - {x: 0, y: 1, z: 0}
    - {x: 1, y: 0, z: 0}
    m_RuleTransform: 1
  - m_Id: 0
    m_Sprites:
    - {fileID: -1815669115, guid: 1dacecb0b25a1524ea87c0e634c09eca, type: 3}
    m_GameObject: {fileID: 0}
    m_MinAnimationSpeed: 1
    m_MaxAnimationSpeed: 1
    m_PerlinScale: 0.5
    m_Output: 0
    m_ColliderType: 1
    m_RandomTransform: 0
    m_Neighbors: 020000000200000001000000
    m_NeighborPositions:
    - {x: 0, y: -1, z: 0}
    - {x: -1, y: 0, z: 0}
    - {x: 0, y: 1, z: 0}
    m_RuleTransform: 0
  - m_Id: 6
    m_Sprites:
    - {fileID: -1923060909, guid: 1dacecb0b25a1524ea87c0e634c09eca, type: 3}
    m_GameObject: {fileID: 0}
    m_MinAnimationSpeed: 1
    m_MaxAnimationSpeed: 1
    m_PerlinScale: 0.5
    m_Output: 0
    m_ColliderType: 1
    m_RandomTransform: 0
    m_Neighbors: 020000000100000002000000
    m_NeighborPositions:
    - {x: 0, y: -1, z: 0}
    - {x: 0, y: 1, z: 0}
    - {x: 1, y: 0, z: 0}
    m_RuleTransform: 0
  - m_Id: 8
    m_Sprites:
    - {fileID: -1815669115, guid: 1dacecb0b25a1524ea87c0e634c09eca, type: 3}
    m_GameObject: {fileID: 0}
    m_MinAnimationSpeed: 1
    m_MaxAnimationSpeed: 1
    m_PerlinScale: 0.5
    m_Output: 0
    m_ColliderType: 1
    m_RandomTransform: 0
    m_Neighbors: 010000000200000002000000
    m_NeighborPositions:
    - {x: 0, y: -1, z: 0}
    - {x: -1, y: 0, z: 0}
    - {x: 0, y: 1, z: 0}
    m_RuleTransform: 0
  - m_Id: 3
    m_Sprites:
    - {fileID: 78319884, guid: 1dacecb0b25a1524ea87c0e634c09eca, type: 3}
    - {fileID: -62378854, guid: 1dacecb0b25a1524ea87c0e634c09eca, type: 3}
    - {fileID: -922686244, guid: 1dacecb0b25a1524ea87c0e634c09eca, type: 3}
    - {fileID: -62378854, guid: 1dacecb0b25a1524ea87c0e634c09eca, type: 3}
    - {fileID: -1768504454, guid: 1dacecb0b25a1524ea87c0e634c09eca, type: 3}
    - {fileID: -1768504454, guid: 1dacecb0b25a1524ea87c0e634c09eca, type: 3}
    - {fileID: -1768504454, guid: 1dacecb0b25a1524ea87c0e634c09eca, type: 3}
    - {fileID: -1768504454, guid: 1dacecb0b25a1524ea87c0e634c09eca, type: 3}
    - {fileID: -1768504454, guid: 1dacecb0b25a1524ea87c0e634c09eca, type: 3}
    - {fileID: -1768504454, guid: 1dacecb0b25a1524ea87c0e634c09eca, type: 3}
    - {fileID: -1768504454, guid: 1dacecb0b25a1524ea87c0e634c09eca, type: 3}
    - {fileID: -1768504454, guid: 1dacecb0b25a1524ea87c0e634c09eca, type: 3}
    m_GameObject: {fileID: 0}
    m_MinAnimationSpeed: 1
    m_MaxAnimationSpeed: 1
    m_PerlinScale: 0.4
    m_Output: 0
    m_ColliderType: 1
    m_RandomTransform: 0
    m_Neighbors: 01000000010000000100000002000000
    m_NeighborPositions:
    - {x: 0, y: 1, z: 0}
    - {x: 1, y: 0, z: 0}
    - {x: 0, y: -1, z: 0}
    - {x: -1, y: 0, z: 0}
    m_RuleTransform: 5
  - m_Id: 1
    m_Sprites:
    - {fileID: -147324475, guid: 1dacecb0b25a1524ea87c0e634c09eca, type: 3}
    - {fileID: 1699580328, guid: 1dacecb0b25a1524ea87c0e634c09eca, type: 3}
    m_GameObject: {fileID: 0}
    m_MinAnimationSpeed: 1
    m_MaxAnimationSpeed: 1
    m_PerlinScale: 0.5
    m_Output: 0
    m_ColliderType: 1
    m_RandomTransform: 0
    m_Neighbors: 020000000100000001000000
    m_NeighborPositions:
    - {x: 1, y: 0, z: 0}
    - {x: 0, y: 1, z: 0}
    - {x: -1, y: 0, z: 0}
    m_RuleTransform: 0
  - m_Id: 5
    m_Sprites:
    - {fileID: 78319884, guid: 1dacecb0b25a1524ea87c0e634c09eca, type: 3}
    - {fileID: 1957350737, guid: 1dacecb0b25a1524ea87c0e634c09eca, type: 3}
    m_GameObject: {fileID: 0}
    m_MinAnimationSpeed: 1
    m_MaxAnimationSpeed: 1
    m_PerlinScale: 0.5
    m_Output: 0
    m_ColliderType: 1
    m_RandomTransform: 0
    m_Neighbors: 010000000100000002000000
    m_NeighborPositions:
    - {x: 1, y: 0, z: 0}
    - {x: 0, y: 1, z: 0}
    - {x: -1, y: 0, z: 0}
    m_RuleTransform: 0
  - m_Id: 4
    m_Sprites:
    - {fileID: -1768504454, guid: 1dacecb0b25a1524ea87c0e634c09eca, type: 3}
    - {fileID: -62378854, guid: 1dacecb0b25a1524ea87c0e634c09eca, type: 3}
    - {fileID: -922686244, guid: 1dacecb0b25a1524ea87c0e634c09eca, type: 3}
    - {fileID: -62378854, guid: 1dacecb0b25a1524ea87c0e634c09eca, type: 3}
    - {fileID: -1768504454, guid: 1dacecb0b25a1524ea87c0e634c09eca, type: 3}
    - {fileID: -1768504454, guid: 1dacecb0b25a1524ea87c0e634c09eca, type: 3}
    - {fileID: -1768504454, guid: 1dacecb0b25a1524ea87c0e634c09eca, type: 3}
    - {fileID: -1768504454, guid: 1dacecb0b25a1524ea87c0e634c09eca, type: 3}
    - {fileID: -1768504454, guid: 1dacecb0b25a1524ea87c0e634c09eca, type: 3}
    - {fileID: -1768504454, guid: 1dacecb0b25a1524ea87c0e634c09eca, type: 3}
    - {fileID: -1768504454, guid: 1dacecb0b25a1524ea87c0e634c09eca, type: 3}
    - {fileID: -1768504454, guid: 1dacecb0b25a1524ea87c0e634c09eca, type: 3}
    m_GameObject: {fileID: 0}
    m_MinAnimationSpeed: 1
    m_MaxAnimationSpeed: 1
    m_PerlinScale: 0.4
    m_Output: 1
    m_ColliderType: 1
    m_RandomTransform: 0
    m_Neighbors: 0100000001000000
    m_NeighborPositions:
    - {x: 0, y: 1, z: 0}
    - {x: 0, y: -1, z: 0}
    m_RuleTransform: 0
