%YAML 1.1
%TAG !u! tag:unity3d.com,2011:
--- !u!114 &11400000
MonoBehaviour:
  m_ObjectHideFlags: 0
  m_CorrespondingSourceObject: {fileID: 0}
  m_PrefabInstance: {fileID: 0}
  m_PrefabAsset: {fileID: 0}
  m_GameObject: {fileID: 0}
  m_Enabled: 1
  m_EditorHideFlags: 0
  m_Script: {fileID: 11500000, guid: 9d1514134bc4fbd41bb739b1b9a49231, type: 3}
  m_Name: Zona2 Deco
  m_EditorClassIdentifier: 
  m_DefaultSprite: {fileID: 21300000, guid: 23bcea545e2ed8b46988680f013f353a, type: 3}
  m_DefaultGameObject: {fileID: 0}
  m_DefaultColliderType: 1
  m_TilingRules:
  - m_Id: 0
    m_Sprites:
    - {fileID: 21300000, guid: 4346ad02fb2bd9b46a42e51263a1c851, type: 3}
    - {fileID: -1986511973, guid: 1dacecb0b25a1524ea87c0e634c09eca, type: 3}
    - {fileID: -1379832228, guid: 1dacecb0b25a1524ea87c0e634c09eca, type: 3}
    - {fileID: -1482825056, guid: 1dacecb0b25a1524ea87c0e634c09eca, type: 3}
    - {fileID: 1860902545, guid: 1dacecb0b25a1524ea87c0e634c09eca, type: 3}
    - {fileID: 1991037012, guid: 1dacecb0b25a1524ea87c0e634c09eca, type: 3}
    - {fileID: -589120953, guid: 1dacecb0b25a1524ea87c0e634c09eca, type: 3}
    - {fileID: 1862300195, guid: 1dacecb0b25a1524ea87c0e634c09eca, type: 3}
    - {fileID: 491229098, guid: 1dacecb0b25a1524ea87c0e634c09eca, type: 3}
    - {fileID: 1905718981, guid: 1dacecb0b25a1524ea87c0e634c09eca, type: 3}
    - {fileID: -1771064624, guid: 1dacecb0b25a1524ea87c0e634c09eca, type: 3}
    m_GameObject: {fileID: 0}
    m_MinAnimationSpeed: 1
    m_MaxAnimationSpeed: 1
    m_PerlinScale: 0.5
    m_Output: 0
    m_ColliderType: 1
    m_RandomTransform: 0
    m_Neighbors: 
    m_NeighborPositions: []
    m_RuleTransform: 0
